Payloads\CreateBookingRequest.class
DataStore\Data.class
stepDef\CreateAuthSteps.class
Models\BookingDates.class
Payloads\GenerateAuthResponse.class
Actions\GenerateAuthActions.class
Models\Token.class
Models\Booking.class
Models\Auth.class
Payloads\GenerateAuthRequests.class
stepDef\DemoFeatureSteps.class
Payloads\CreateBookingResponse.class
runner\TestRunner.class
Actions\CreateBookingActions.class
